Gov 50 Final Project
…
Crimes <- read_csv("Crimes_-_2019.csv")

Data

This is a cross-sectional study that observes the relationship between crime type and arrests made. It is more of a descriptive study as opposed to causal. Before going into the code, the independent variables of Assault and Motor Vehicle Theft were measured by simple coding, where the individual crimes for each were filtered and counted for the given year in 2019. The dependent variable of arrests was measured a bit differently. Arrests were original coded as “TRUE” or “FALSE”, but this was for the entirety of the dataset. Thus, I created the “asarr” column to count the arrests or nonarrests for assaults. I then created the “mvtarr” to count the arrests or nonarrests for the motor vehicle thefts.

library(dplyr)
library(tidyverse)

subset(Crimes, select = c("Primary Type")) 

# A tibble: 261,158 × 1
   `Primary Type`    
   <chr>             
 1 DECEPTIVE PRACTICE
 2 THEFT             
 3 THEFT             
 4 CRIMINAL DAMAGE   
 5 ASSAULT           
 6 THEFT             
 7 BATTERY           
 8 CRIMINAL DAMAGE   
 9 BATTERY           
10 OTHER OFFENSE     
# … with 261,148 more rows

Crimes %>% 
  count(`Primary Type`, Arrest)

# A tibble: 59 × 3
   `Primary Type`                    Arrest     n
   <chr>                             <lgl>  <int>
 1 ARSON                             FALSE    333
 2 ARSON                             TRUE      43
 3 ASSAULT                           FALSE  16876
 4 ASSAULT                           TRUE    3743
 5 BATTERY                           FALSE  39106
 6 BATTERY                           TRUE   10405
 7 BURGLARY                          FALSE   9094
 8 BURGLARY                          TRUE     545
 9 CONCEALED CARRY LICENSE VIOLATION FALSE      5
10 CONCEALED CARRY LICENSE VIOLATION TRUE     212
# … with 49 more rows

Crimes

# A tibble: 261,158 × 22
         ID Case Nu…¹ Date  Block IUCR  Prima…² Descr…³ Locat…⁴ Arrest
      <dbl> <chr>     <chr> <chr> <chr> <chr>   <chr>   <chr>   <lgl> 
 1 11864018 JC476123  09/2… 022X… 1154  DECEPT… FINANC… COMMER… FALSE 
 2 11859805 JC471592  10/1… 024X… 0860  THEFT   RETAIL… GROCER… FALSE 
 3 11863808 JC476236  10/0… 0000… 0810  THEFT   OVER $… RESIDE… FALSE 
 4 11859727 JC471542  10/1… 016X… 1320  CRIMIN… TO VEH… STREET  FALSE 
 5 11859656 JC471240  10/1… 051X… 0560  ASSAULT SIMPLE  GAS ST… FALSE 
 6 11859827 JC471571  10/1… 011X… 0860  THEFT   RETAIL… APPLIA… TRUE  
 7 11859127 JC470662  10/1… 064X… 0486  BATTERY DOMEST… APARTM… FALSE 
 8 11859142 JC470769  10/1… 070X… 1310  CRIMIN… TO PRO… RESIDE… FALSE 
 9 11859444 JC470982  10/1… 065X… 0486  BATTERY DOMEST… APARTM… FALSE 
10 11864222 JC476645  08/0… 051X… 2826  OTHER … HARASS… RESIDE… FALSE 
# … with 261,148 more rows, 13 more variables: Domestic <lgl>,
#   Beat <chr>, District <chr>, Ward <dbl>, `Community Area` <dbl>,
#   `FBI Code` <chr>, `X Coordinate` <dbl>, `Y Coordinate` <dbl>,
#   Year <dbl>, `Updated On` <chr>, Latitude <dbl>, Longitude <dbl>,
#   Location <chr>, and abbreviated variable names ¹​`Case Number`,
#   ²​`Primary Type`, ³​Description, ⁴​`Location Description`

Crimes %>%
  count(Ward)

# A tibble: 51 × 2
    Ward     n
   <dbl> <int>
 1     1  4817
 2     2  5273
 3     3  7405
 4     4  6975
 5     5  5923
 6     6  9771
 7     7  7548
 8     8  8158
 9     9  7887
10    10  3737
# … with 41 more rows

Crimes

# A tibble: 261,158 × 22
         ID Case Nu…¹ Date  Block IUCR  Prima…² Descr…³ Locat…⁴ Arrest
      <dbl> <chr>     <chr> <chr> <chr> <chr>   <chr>   <chr>   <lgl> 
 1 11864018 JC476123  09/2… 022X… 1154  DECEPT… FINANC… COMMER… FALSE 
 2 11859805 JC471592  10/1… 024X… 0860  THEFT   RETAIL… GROCER… FALSE 
 3 11863808 JC476236  10/0… 0000… 0810  THEFT   OVER $… RESIDE… FALSE 
 4 11859727 JC471542  10/1… 016X… 1320  CRIMIN… TO VEH… STREET  FALSE 
 5 11859656 JC471240  10/1… 051X… 0560  ASSAULT SIMPLE  GAS ST… FALSE 
 6 11859827 JC471571  10/1… 011X… 0860  THEFT   RETAIL… APPLIA… TRUE  
 7 11859127 JC470662  10/1… 064X… 0486  BATTERY DOMEST… APARTM… FALSE 
 8 11859142 JC470769  10/1… 070X… 1310  CRIMIN… TO PRO… RESIDE… FALSE 
 9 11859444 JC470982  10/1… 065X… 0486  BATTERY DOMEST… APARTM… FALSE 
10 11864222 JC476645  08/0… 051X… 2826  OTHER … HARASS… RESIDE… FALSE 
# … with 261,148 more rows, 13 more variables: Domestic <lgl>,
#   Beat <chr>, District <chr>, Ward <dbl>, `Community Area` <dbl>,
#   `FBI Code` <chr>, `X Coordinate` <dbl>, `Y Coordinate` <dbl>,
#   Year <dbl>, `Updated On` <chr>, Latitude <dbl>, Longitude <dbl>,
#   Location <chr>, and abbreviated variable names ¹​`Case Number`,
#   ²​`Primary Type`, ³​Description, ⁴​`Location Description`

The goal of creating this specific table was to delineate each individual type of crime that existed within the “Primary Type” column. This, then, allowed me to count the number of crimes that existed under each crime type as well as the number of arrests/non-arrests that occured under each crime type. This was essential to the next portion of the project, where I selected two specific crimes of interest (Assault and Motor Vehicle Theft).

Crimes <- Crimes |> 
  mutate(Assault = if_else(`Primary Type` ==  "ASSAULT", "Assault", "Other"))
Crimes

# A tibble: 261,158 × 23
         ID Case Nu…¹ Date  Block IUCR  Prima…² Descr…³ Locat…⁴ Arrest
      <dbl> <chr>     <chr> <chr> <chr> <chr>   <chr>   <chr>   <lgl> 
 1 11864018 JC476123  09/2… 022X… 1154  DECEPT… FINANC… COMMER… FALSE 
 2 11859805 JC471592  10/1… 024X… 0860  THEFT   RETAIL… GROCER… FALSE 
 3 11863808 JC476236  10/0… 0000… 0810  THEFT   OVER $… RESIDE… FALSE 
 4 11859727 JC471542  10/1… 016X… 1320  CRIMIN… TO VEH… STREET  FALSE 
 5 11859656 JC471240  10/1… 051X… 0560  ASSAULT SIMPLE  GAS ST… FALSE 
 6 11859827 JC471571  10/1… 011X… 0860  THEFT   RETAIL… APPLIA… TRUE  
 7 11859127 JC470662  10/1… 064X… 0486  BATTERY DOMEST… APARTM… FALSE 
 8 11859142 JC470769  10/1… 070X… 1310  CRIMIN… TO PRO… RESIDE… FALSE 
 9 11859444 JC470982  10/1… 065X… 0486  BATTERY DOMEST… APARTM… FALSE 
10 11864222 JC476645  08/0… 051X… 2826  OTHER … HARASS… RESIDE… FALSE 
# … with 261,148 more rows, 14 more variables: Domestic <lgl>,
#   Beat <chr>, District <chr>, Ward <dbl>, `Community Area` <dbl>,
#   `FBI Code` <chr>, `X Coordinate` <dbl>, `Y Coordinate` <dbl>,
#   Year <dbl>, `Updated On` <chr>, Latitude <dbl>, Longitude <dbl>,
#   Location <chr>, Assault <chr>, and abbreviated variable names
#   ¹​`Case Number`, ²​`Primary Type`, ³​Description,
#   ⁴​`Location Description`

Crimes <- Crimes |> 
  mutate(`MVT` = if_else(`Primary Type` == "MOTOR VEHICLE THEFT", "Mvt", "No-Mvt" ))
Crimes

# A tibble: 261,158 × 24
         ID Case Nu…¹ Date  Block IUCR  Prima…² Descr…³ Locat…⁴ Arrest
      <dbl> <chr>     <chr> <chr> <chr> <chr>   <chr>   <chr>   <lgl> 
 1 11864018 JC476123  09/2… 022X… 1154  DECEPT… FINANC… COMMER… FALSE 
 2 11859805 JC471592  10/1… 024X… 0860  THEFT   RETAIL… GROCER… FALSE 
 3 11863808 JC476236  10/0… 0000… 0810  THEFT   OVER $… RESIDE… FALSE 
 4 11859727 JC471542  10/1… 016X… 1320  CRIMIN… TO VEH… STREET  FALSE 
 5 11859656 JC471240  10/1… 051X… 0560  ASSAULT SIMPLE  GAS ST… FALSE 
 6 11859827 JC471571  10/1… 011X… 0860  THEFT   RETAIL… APPLIA… TRUE  
 7 11859127 JC470662  10/1… 064X… 0486  BATTERY DOMEST… APARTM… FALSE 
 8 11859142 JC470769  10/1… 070X… 1310  CRIMIN… TO PRO… RESIDE… FALSE 
 9 11859444 JC470982  10/1… 065X… 0486  BATTERY DOMEST… APARTM… FALSE 
10 11864222 JC476645  08/0… 051X… 2826  OTHER … HARASS… RESIDE… FALSE 
# … with 261,148 more rows, 15 more variables: Domestic <lgl>,
#   Beat <chr>, District <chr>, Ward <dbl>, `Community Area` <dbl>,
#   `FBI Code` <chr>, `X Coordinate` <dbl>, `Y Coordinate` <dbl>,
#   Year <dbl>, `Updated On` <chr>, Latitude <dbl>, Longitude <dbl>,
#   Location <chr>, Assault <chr>, MVT <chr>, and abbreviated
#   variable names ¹​`Case Number`, ²​`Primary Type`, ³​Description,
#   ⁴​`Location Description`

In this section, I created a column of each specif crime type that I am interested in examining. Specifically, the “Assault” and “MVT” columns that I mutated seperately corresponds to whether the crime committed was one that was an Assault of Motor Vehicle Theft. This was essential to me setting up my graph, where I could only plot column names and not individual variables. Therefore, this column was needed in order to set up my x-axis variables for the bar graph plotted further below.

Crimes <- Crimes |> 
  group_by(Assault) |> 
  mutate(asarr = if_else(Arrest == TRUE, "Arrest", "No Arrest"))
Crimes

# A tibble: 261,158 × 25
# Groups:   Assault [2]
         ID Case Nu…¹ Date  Block IUCR  Prima…² Descr…³ Locat…⁴ Arrest
      <dbl> <chr>     <chr> <chr> <chr> <chr>   <chr>   <chr>   <lgl> 
 1 11864018 JC476123  09/2… 022X… 1154  DECEPT… FINANC… COMMER… FALSE 
 2 11859805 JC471592  10/1… 024X… 0860  THEFT   RETAIL… GROCER… FALSE 
 3 11863808 JC476236  10/0… 0000… 0810  THEFT   OVER $… RESIDE… FALSE 
 4 11859727 JC471542  10/1… 016X… 1320  CRIMIN… TO VEH… STREET  FALSE 
 5 11859656 JC471240  10/1… 051X… 0560  ASSAULT SIMPLE  GAS ST… FALSE 
 6 11859827 JC471571  10/1… 011X… 0860  THEFT   RETAIL… APPLIA… TRUE  
 7 11859127 JC470662  10/1… 064X… 0486  BATTERY DOMEST… APARTM… FALSE 
 8 11859142 JC470769  10/1… 070X… 1310  CRIMIN… TO PRO… RESIDE… FALSE 
 9 11859444 JC470982  10/1… 065X… 0486  BATTERY DOMEST… APARTM… FALSE 
10 11864222 JC476645  08/0… 051X… 2826  OTHER … HARASS… RESIDE… FALSE 
# … with 261,148 more rows, 16 more variables: Domestic <lgl>,
#   Beat <chr>, District <chr>, Ward <dbl>, `Community Area` <dbl>,
#   `FBI Code` <chr>, `X Coordinate` <dbl>, `Y Coordinate` <dbl>,
#   Year <dbl>, `Updated On` <chr>, Latitude <dbl>, Longitude <dbl>,
#   Location <chr>, Assault <chr>, MVT <chr>, asarr <chr>, and
#   abbreviated variable names ¹​`Case Number`, ²​`Primary Type`,
#   ³​Description, ⁴​`Location Description`

Crimes <- Crimes |> 
  group_by(MVT) |> 
  mutate(mvtarr = if_else(Arrest == TRUE, "Arrest", "No Arrest"))
Crimes

# A tibble: 261,158 × 26
# Groups:   MVT [2]
         ID Case Nu…¹ Date  Block IUCR  Prima…² Descr…³ Locat…⁴ Arrest
      <dbl> <chr>     <chr> <chr> <chr> <chr>   <chr>   <chr>   <lgl> 
 1 11864018 JC476123  09/2… 022X… 1154  DECEPT… FINANC… COMMER… FALSE 
 2 11859805 JC471592  10/1… 024X… 0860  THEFT   RETAIL… GROCER… FALSE 
 3 11863808 JC476236  10/0… 0000… 0810  THEFT   OVER $… RESIDE… FALSE 
 4 11859727 JC471542  10/1… 016X… 1320  CRIMIN… TO VEH… STREET  FALSE 
 5 11859656 JC471240  10/1… 051X… 0560  ASSAULT SIMPLE  GAS ST… FALSE 
 6 11859827 JC471571  10/1… 011X… 0860  THEFT   RETAIL… APPLIA… TRUE  
 7 11859127 JC470662  10/1… 064X… 0486  BATTERY DOMEST… APARTM… FALSE 
 8 11859142 JC470769  10/1… 070X… 1310  CRIMIN… TO PRO… RESIDE… FALSE 
 9 11859444 JC470982  10/1… 065X… 0486  BATTERY DOMEST… APARTM… FALSE 
10 11864222 JC476645  08/0… 051X… 2826  OTHER … HARASS… RESIDE… FALSE 
# … with 261,148 more rows, 17 more variables: Domestic <lgl>,
#   Beat <chr>, District <chr>, Ward <dbl>, `Community Area` <dbl>,
#   `FBI Code` <chr>, `X Coordinate` <dbl>, `Y Coordinate` <dbl>,
#   Year <dbl>, `Updated On` <chr>, Latitude <dbl>, Longitude <dbl>,
#   Location <chr>, Assault <chr>, MVT <chr>, asarr <chr>,
#   mvtarr <chr>, and abbreviated variable names ¹​`Case Number`,
#   ²​`Primary Type`, ³​Description, ⁴​`Location Description`
…
Assault
Arrest Average

Assault
0.1815316

This data shows that for Motor Vehicle Theft crimes (Mvt), there are 5% of total cases that lead to arrests. the No-Mvt delineates overall crimes that were not motor vehicle thefts. Secondly, the data for Assault shows that 18% of assault crimes have led to arrests. This goes to show that, on average, there is a greater likelihood of arrests for crimes of assault as opposed to crimes of motor vehicle theft. This accounts for differences in the numeric population of each crime type total, thus minimizing a confounding factor of the difference in total number of crimes in each crime sector, Assault and Motor Vehicle Theft. This data will be important to compare to the regression data in order to determine which one may be more causal than the other.

Crimes <- Crimes |> 
  mutate(SectionAWards = if_else(Ward >= 25, "Section A", "Section B"))
Crimes

# A tibble: 261,158 × 27
# Groups:   MVT [2]
         ID Case Nu…¹ Date  Block IUCR  Prima…² Descr…³ Locat…⁴ Arrest
      <dbl> <chr>     <chr> <chr> <chr> <chr>   <chr>   <chr>   <lgl> 
 1 11864018 JC476123  09/2… 022X… 1154  DECEPT… FINANC… COMMER… FALSE 
 2 11859805 JC471592  10/1… 024X… 0860  THEFT   RETAIL… GROCER… FALSE 
 3 11863808 JC476236  10/0… 0000… 0810  THEFT   OVER $… RESIDE… FALSE 
 4 11859727 JC471542  10/1… 016X… 1320  CRIMIN… TO VEH… STREET  FALSE 
 5 11859656 JC471240  10/1… 051X… 0560  ASSAULT SIMPLE  GAS ST… FALSE 
 6 11859827 JC471571  10/1… 011X… 0860  THEFT   RETAIL… APPLIA… TRUE  
 7 11859127 JC470662  10/1… 064X… 0486  BATTERY DOMEST… APARTM… FALSE 
 8 11859142 JC470769  10/1… 070X… 1310  CRIMIN… TO PRO… RESIDE… FALSE 
 9 11859444 JC470982  10/1… 065X… 0486  BATTERY DOMEST… APARTM… FALSE 
10 11864222 JC476645  08/0… 051X… 2826  OTHER … HARASS… RESIDE… FALSE 
# … with 261,148 more rows, 18 more variables: Domestic <lgl>,
#   Beat <chr>, District <chr>, Ward <dbl>, `Community Area` <dbl>,
#   `FBI Code` <chr>, `X Coordinate` <dbl>, `Y Coordinate` <dbl>,
#   Year <dbl>, `Updated On` <chr>, Latitude <dbl>, Longitude <dbl>,
#   Location <chr>, Assault <chr>, MVT <chr>, asarr <chr>,
#   mvtarr <chr>, SectionAWards <chr>, and abbreviated variable names
#   ¹​`Case Number`, ²​`Primary Type`, ³​Description, …

Crimes <- Crimes |> 
  mutate(SectionBWards = if_else(Ward <=24, "Section B", "Section A"))
Crimes

# A tibble: 261,158 × 28
# Groups:   MVT [2]
         ID Case Nu…¹ Date  Block IUCR  Prima…² Descr…³ Locat…⁴ Arrest
      <dbl> <chr>     <chr> <chr> <chr> <chr>   <chr>   <chr>   <lgl> 
 1 11864018 JC476123  09/2… 022X… 1154  DECEPT… FINANC… COMMER… FALSE 
 2 11859805 JC471592  10/1… 024X… 0860  THEFT   RETAIL… GROCER… FALSE 
 3 11863808 JC476236  10/0… 0000… 0810  THEFT   OVER $… RESIDE… FALSE 
 4 11859727 JC471542  10/1… 016X… 1320  CRIMIN… TO VEH… STREET  FALSE 
 5 11859656 JC471240  10/1… 051X… 0560  ASSAULT SIMPLE  GAS ST… FALSE 
 6 11859827 JC471571  10/1… 011X… 0860  THEFT   RETAIL… APPLIA… TRUE  
 7 11859127 JC470662  10/1… 064X… 0486  BATTERY DOMEST… APARTM… FALSE 
 8 11859142 JC470769  10/1… 070X… 1310  CRIMIN… TO PRO… RESIDE… FALSE 
 9 11859444 JC470982  10/1… 065X… 0486  BATTERY DOMEST… APARTM… FALSE 
10 11864222 JC476645  08/0… 051X… 2826  OTHER … HARASS… RESIDE… FALSE 
# … with 261,148 more rows, 19 more variables: Domestic <lgl>,
#   Beat <chr>, District <chr>, Ward <dbl>, `Community Area` <dbl>,
#   `FBI Code` <chr>, `X Coordinate` <dbl>, `Y Coordinate` <dbl>,
#   Year <dbl>, `Updated On` <chr>, Latitude <dbl>, Longitude <dbl>,
#   Location <chr>, Assault <chr>, MVT <chr>, asarr <chr>,
#   mvtarr <chr>, SectionAWards <chr>, SectionBWards <chr>, and
#   abbreviated variable names ¹​`Case Number`, ²​`Primary Type`, …
…
